The Great Statsby: Estimating Prospect Theory Parameters with Maximum Likelihood in R
…
Looping over multiple participants

So now we want to loop over every participant and use optim to fit their parameters. There are two ways to do this: a for loop (easy, inelegant, lame) or by using nest and map (slightly more complicated, elegant, extremely cool). We’re gonna do the latter, because it can really help when doing modeling, but if you want I’ve included some inelegant code at the bottom to do the same thing with a for loop.

Nesting in R

The first thing we’re going to do here is nest our data such that each line is a subject that has only three columns: study, subject, and data, with this last column being a list-column that contains the full dataset for each participant. I’ll try to give a succinct explanation of nested data, but if you want to go more in depth see here or here.

data_nested <- data_clean %>% 
  nest(data = -c(study, subject)) # nest everything within study/subject

data_nested 

# A tibble: 652 x 3
   study   subject data              
   <chr>     <dbl> <list>            
 1 study_1     101 <tibble [215 x 6]>
 2 study_1     102 <tibble [215 x 6]>
 3 study_1     103 <tibble [215 x 6]>
 4 study_1     104 <tibble [215 x 6]>
 5 study_1     105 <tibble [215 x 6]>
 6 study_1     106 <tibble [215 x 6]>
 7 study_1     107 <tibble [215 x 6]>
 8 study_1     108 <tibble [215 x 6]>
 9 study_1     109 <tibble [215 x 6]>
10 study_1     110 <tibble [215 x 6]>
# ... with 642 more rows
…
So now we’ve gone from a dataframe where each row is a gamble to one where each row is a subject, with a variable data that contains everything else for that subject. So if we look at the first data:

data_nested$data[[1]] %>% paged_table()

This is just what we had above – a single dataframe for the participant corresponding to all of their choices. The reason for doing this is it allows us to elegantly run the same code (i.e., the same optim call) to many different datasets at once by applying the same function to every row (i.e., every participant).

The way we run the same optim call for each row is using the map family of functions from the purrr package (one of the tidyverse packages). These functions take a list as input, run some user-specified function on each element in the list, and return a value. map returns a list, map_dbl returns a double, map_chr returns a character string, etc.

To illustrate, consider a simple example where we just want to know how many gambles each participant accepted, we can use the following code to find that out:

data_nested %>% 
  mutate(num_gambles_accepted = map_dbl(data, ~ sum(.$took_gamble)))

# A tibble: 652 x 4
   study   subject data               num_gambles_accepted
   <chr>     <dbl> <list>                            <dbl>
 1 study_1     101 <tibble [215 x 6]>                   86
 2 study_1     102 <tibble [215 x 6]>                   15
 3 study_1     103 <tibble [215 x 6]>                   77
 4 study_1     104 <tibble [215 x 6]>                   98
 5 study_1     105 <tibble [215 x 6]>                  192
 6 study_1     106 <tibble [215 x 6]>                  101
 7 study_1     107 <tibble [215 x 6]>                  118
 8 study_1     108 <tibble [215 x 6]>                   38
 9 study_1     109 <tibble [215 x 6]>                   82
10 study_1     110 <tibble [215 x 6]>                  141
# ... with 642 more rows
…
optim using nest

Hopefully that wasn’t too terribly confusing. Next we’re just gonna do the same thing but using optim instead of summing the number of gambles accepted. This time we’ll use map rather than map_dbl, since optim returns a list. This list will be added as a new variable optim_out (note that, depending on your computer, this might take a while to run):

data_optim <- data_nested %>%
  mutate(optim_out = map(data, ~ optim(par = c(1.24, .83, 2.57),
                                               fn = minimize_LL_prospect,
                                               df = .,
                                               method = 'L-BFGS-B',
                                               lower = c(0,0,0),
                                               upper = c(Inf, 10, Inf))))

data_optim

# A tibble: 652 x 4
   study   subject data               optim_out       
   <chr>     <dbl> <list>             <list>          
 1 study_1     101 <tibble [215 x 6]> <named list [5]>
 2 study_1     102 <tibble [215 x 6]> <named list [5]>
 3 study_1     103 <tibble [215 x 6]> <named list [5]>
 4 study_1     104 <tibble [215 x 6]> <named list [5]>
 5 study_1     105 <tibble [215 x 6]> <named list [5]>
 6 study_1     106 <tibble [215 x 6]> <named list [5]>
 7 study_1     107 <tibble [215 x 6]> <named list [5]>
 8 study_1     108 <tibble [215 x 6]> <named list [5]>
 9 study_1     109 <tibble [215 x 6]> <named list [5]>
10 study_1     110 <tibble [215 x 6]> <named list [5]>
# ... with 642 more rows
…
